<svg xmlns="http://www.w3.org/2000/svg" width="460" height="460" viewBox="0 0 460 460">
  <g id="Ellipse_813" data-name="Ellipse 813" fill="none" stroke="#707070" stroke-width="81" opacity="0.041">
    <circle cx="230" cy="230" r="230" stroke="none"/>
    <circle cx="230" cy="230" r="189.5" fill="none"/>
  </g>
</svg>
